<?xml version="1.0" encoding="utf-8"?>
<!-- Generator: Adobe Illustrator 16.0.0, SVG Export Plug-In . SVG Version: 6.00 Build 0)  -->
<!DOCTYPE svg PUBLIC "-//W3C//DTD SVG 1.1//EN" "http://www.w3.org/Graphics/SVG/1.1/DTD/svg11.dtd">
<svg version="1.1" id="Слой_1" xmlns="http://www.w3.org/2000/svg" xmlns:xlink="http://www.w3.org/1999/xlink" x="0px" y="0px"
	 width="144.146px" height="58.14px" viewBox="1107.092 -135.374 144.146 58.14"
	 enable-background="new 1107.092 -135.374 144.146 58.14" xml:space="preserve">
<g>
	<path fill="#FEFEFE" d="M1122.723-133.831c9.341-0.69,18.7-1.44,28.08-1.53c2.7-0.16,6.09,1.15,6.58,4.15
		c0.69,2.63-2.08,4.63-4.47,4.49c-8.84,0.199-17.66,0.67-26.49,0.939c1.58,5.11,2.891,10.29,4.3,15.45
		c5.65-0.44,11.28-1.24,16.95-1.33c2.641-0.06,5.87,1.56,6.102,4.479c0.188,2.189-1.86,3.79-3.86,4
		c-5.64,0.421-11.28,0.91-16.92,1.221c1.38,5.27,2.97,10.49,4.06,15.819c0.51,2.07,0.19,5.36-2.438,5.66
		c-2.722,0.13-4.852-2.39-5.58-4.8c-1.601-5.31-2.812-10.729-4.312-16.07c-4.948-0.069-9.88,1.21-14.79,0.761
		c-3.229-0.5-3.949-5.17-0.898-6.471c4.26-1.83,9.02-2.029,13.59-2.529c-1.9-6.5-2.87-13.24-5.181-19.61
		C1116.874-132.17,1120.214-133.791,1122.723-133.831z"/>
	<path fill="#FEFEFE" d="M1164.664-131.241c1.88-3.09,6.74-2.22,8.42,0.66c5.42,8.46,9.24,17.84,12.87,27.18
		c1.83,5.33,4.029,10.62,4.96,16.21c0.568,3.771-4.63,7.51-7.15,3.75c-2.5-5.38-3.479-11.35-5.81-16.819
		c-5.511-0.011-11.021-0.141-16.5-0.75c-2.84,6.39-4.28,13.449-7.99,19.409c-2.32,2.73-5.79-0.899-4.76-3.689
		c2.479-12.44,7.5-24.2,11.87-36.07C1161.944-124.65,1162.884-128.141,1164.664-131.241 M1164.303-108.661
		c3.45-0.1,6.9-0.12,10.37-0.07c-1.77-4.14-3.689-8.22-5.64-12.279C1167.624-116.831,1165.933-112.75,1164.303-108.661z"/>
	<path fill="#FEFEFE" d="M1200.254-125.94c4.83-4.109,11.47-5.81,17.72-4.859c12.28,1.409,23.79,10.42,26.86,22.59
		c1.7,6.029,0.96,12.52-1.49,18.229c2.63,2.11,6.07,3.61,7.63,6.771c1.261,3.13-2.229,6.49-5.329,5.37
		c-2.641-1.42-4.789-3.561-7.131-5.36c-4.658,3.91-10.63,6.29-16.77,5.93c-10.521-0.59-20.812-6.41-26.37-15.42
		C1188.944-103.101,1191.374-117.71,1200.254-125.94 M1203.044-118.01c-3.39,5.34-4.29,12.38-1.91,18.3
		c2.48,5.88,7.91,10.02,13.75,12.25c5.16,1.97,11.51,2.25,16.101-1.24c-4.829-3.78-9.5-7.78-14.761-10.94
		c-3.16-2.189,0.08-6.939,3.432-5.39c5.988,2.28,10.87,6.62,16.22,10.04c1.109-3.58,1.41-7.479,0.38-11.12
		c-2.82-10.359-14.09-17.29-24.6-15.859C1208.603-121.17,1205.584-119.86,1203.044-118.01z"/>
</g>
</svg>
