<?xml version="1.0" encoding="utf-8"?>
<!-- Generator: Adobe Illustrator 16.0.0, SVG Export Plug-In . SVG Version: 6.00 Build 0)  -->
<!DOCTYPE svg PUBLIC "-//W3C//DTD SVG 1.1//EN" "http://www.w3.org/Graphics/SVG/1.1/DTD/svg11.dtd">
<svg version="1.1" id="Слой_1" xmlns="http://www.w3.org/2000/svg" xmlns:xlink="http://www.w3.org/1999/xlink" x="0px" y="0px"
	 width="991.486px" height="67.073px" viewBox="193.076 700.385 991.486 67.073"
	 enable-background="new 193.076 700.385 991.486 67.073" xml:space="preserve">
<g>
	<path fill="#FEFEFE" d="M791.644,705.01c-0.607-2.47,1.48-5.28,4.16-4.489c3.219,1.479,3.109,5.529,4.08,8.431
		c8.08-5.489,18.199-8.642,27.959-6.699c6.211,1.34,12.531,5.21,14.541,11.562c1.84,5.3-0.41,11.068-4.031,15.038
		c-7.896,8.643-20.229,12.28-31.688,11.432c1.08,4.881,1.99,9.791,3.061,14.67c0.459,1.45-0.5,2.791-0.83,4.148
		c-1.1,0.44-2.188,0.9-3.27,1.37c-4.4-1.09-4.451-6.04-5.24-9.64C797.744,735.49,793.724,720.43,791.644,705.01 M812.634,712.58
		c-3.721,1.68-8.281,3.34-10.131,7.24c0.58,4.42,1.871,8.72,2.689,13.1c9.318-0.26,19.461-2.36,26.189-9.32
		c2.311-2.198,4.189-6.148,1.619-8.88C827.812,709.22,819.103,710.07,812.634,712.58z"/>
	<path fill="#FEFEFE" d="M692.875,708.29c8.629-0.28,17.26,0.159,25.889-0.061c2.393-0.149,5.371,1.011,5.791,3.648
		c0.65,2.79-2.211,4.979-4.76,4.989c-8.061,0.391-16.131-0.062-24.182-0.42c2.092,6.101,3.922,12.291,5.881,18.431
		c6.119-0.46,13.17-2.17,18.449,2c1.041,2.46-1.398,3.93-3.33,4.68c-3.93,1.99-8.439,1.45-12.67,1.342
		c1.41,5,3.08,9.931,4.471,14.938c0.729,2.189,0.109,5.74-2.73,5.88c-3.379,0.53-4.857-3.18-5.629-5.8
		c-4.109-13.811-8.5-27.54-11.961-41.53c-0.559-1.858-2.639-3.38-1.719-5.51C687.673,708.6,690.535,708.47,692.875,708.29z"/>
	<path fill="#FEFEFE" d="M392.273,712.46c0.818-2.08,3.271-3.17,5.398-3.181c7.689-0.189,15.432-0.432,23.09,0.479
		c2.53,0.49,5.602,2.45,5.312,5.392c-0.92,2.488-3.92,3.289-6.312,3.108c-6.39-0.391-12.778-0.55-19.17-0.78
		c0.16,4.843,0.28,9.7,0.62,14.54c4.82-0.71,9.62-1.618,14.479-1.93c2.17-0.16,4.67,0.68,5.591,2.82
		c0.729,2.85-2.11,5.039-4.65,5.39c-4.96,0.899-10.021,1.102-15.028,1.63c0.229,3.53,0.3,7.07,0.5,10.602
		c9.818-1.432,19.76-1.439,29.658-1.819c2.649-0.28,5.2,2.83,3.762,5.3c-0.95,2.189-3.41,3.21-5.67,3.28
		c-9.33,0.47-18.7,0.3-27.99,1.359c-1.899,0.101-4.102,1.431-5.71-0.109c-1.75-1.21-1.921-3.54-2.012-5.47
		c-0.42-11.73-1.38-23.451-0.938-35.183C393.464,715.97,391.474,714.369,392.273,712.46z"/>
	<path fill="#FEFEFE" d="M450.113,714.46c0.591-2.591,2.841-5.29,5.771-4.66c3.142,0.892,4.79,3.96,6.38,6.55
		c6.36,11.36,10.979,23.58,15.551,35.74c1.021,3.771,3.729,7.55,2.439,11.57c-0.87,2.63-5.45,4.819-6.891,1.539
		c-2.29-6.182-4.271-12.479-6.729-18.602c-5.739,0.961-11.58,0.9-17.37,0.91c-1.33,5.359-2.449,10.8-4.13,16.07
		c-0.46,1.789-1.858,3.02-3.42,3.88c-2.96-0.74-3.69-3.89-3.069-6.53C441.214,745.16,445.714,729.79,450.113,714.46
		 M451.294,739.521c4.069-0.5,8.18-0.789,12.29-0.681c-2.2-5.62-5.03-10.971-7.32-16.55
		C454.483,728,452.934,733.779,451.294,739.521z"/>
	<path fill="#FEFEFE" d="M525.224,713.96c1.682-3.89,6.459-5.311,10.369-4.53c8.84,1.55,16.32,6.972,23.143,12.5
		c2.688,2.24,5.537,5.32,5.238,9.07c-1.77,3.1-5.641,0.979-7.979-0.28c-7.119-5.01-13.709-11.858-22.74-13.068
		c6.26,11.488,18.211,18.591,24.461,30.101c2.141,4.029,3.471,9.149,1.271,13.439c-2.08,4.051-7.32,5.34-11.439,3.988
		c-7.66-2.3-13.979-8.39-17.352-15.55c-1.432-2.931-2.051-7.608,1.512-9.29c3.789-0.91,3.818,3.852,5.27,6.109
		c3.301,5.261,8.359,10.648,14.949,10.979c-0.039-4.67-3.039-8.52-5.869-11.948c-6.068-6.892-13.131-12.95-18.318-20.592
		C525.613,721.75,523.804,717.771,525.224,713.96z"/>
	<path fill="#FEFEFE" d="M482.554,718.899c-0.26-2.552-0.1-6.382,3.102-6.899c2.448-0.4,3.448,2.08,4.188,3.91
		c7.351-0.73,14.941,0.229,21.759,3.1c3.961,1.682,7.803,5.32,7.393,9.97c-0.24,4.74-4,8.271-7.779,10.62
		c3.08,3.262,6.16,6.521,9.141,9.87c1.5,1.84,3.021,4.55,1.738,6.899c-1.789,2.371-5.18,0.83-7.049-0.67
		c-4.451-4.039-8.031-8.909-11.9-13.479c-3.199,0.642-6.449,0.72-9.688,0.63c0.31,4.74,1.109,9.45,1.01,14.2
		c-0.01,2.51-2.148,5-4.83,4.391c-3.2-0.931-3.409-4.659-3.659-7.398C485.224,742.29,483.434,730.64,482.554,718.899
		 M491.113,724.38c0.521,3.59,0.91,7.19,1.438,10.771c6.321-0.53,14.081-0.649,18.161-6.37
		C505.394,724.24,497.734,724.41,491.113,724.38z"/>
	<path fill="#FEFEFE" d="M1080.312,715.51c3.791-3.75,9.723-3.92,14.621-2.66c6.9,1.83,13.229,5.58,18.57,10.29
		c2.438,2.15,4.51,4.771,5.648,7.86c-0.359,2.25-3,4.5-4.939,2.31c-5.869-5.487-12.65-10.39-20.529-12.448
		c-2.43-0.602-5.34-1.189-7.479,0.479c-1.211,2.54,0.09,5.55,1.27,7.91c4.119,7.32,10.939,12.84,18.4,16.54
		c5.129,2.609,11.029,3.8,15.58,7.489c1.729,1.34,0.539,4.409-1.611,4.479c-6.709,1.03-13.129-1.79-18.959-4.75
		c-9.271-4.95-17.801-12.319-21.971-22.17C1076.824,726,1076.312,719.54,1080.312,715.51z"/>
	<path fill="#FEFEFE" d="M349.964,717.04c-0.58-2.102,1.12-3.641,2.771-4.511c3.568,1.351,5.38,4.95,7.788,7.659
		c4.2,5.029,7.82,10.642,12.83,14.921c3.062-5.552,5.44-11.449,8.58-16.96c1.182-2.29,4.58-3.939,6.682-1.882
		c2.171,1.96,0.949,5.102-0.262,7.262c-3.42,6.051-5.8,12.721-10.039,18.278c0.119,6.71,2.229,13.45,1.069,20.11
		c-1.85,3.729-6.04,0.21-7.18-2.32c-1.91-5.3-1.021-11.13-1.563-16.648c-6.02-3.869-9.84-10.159-14.21-15.659
		C354.163,723.97,351.294,720.899,349.964,717.04z"/>
	<path fill="#FEFEFE" d="M272.153,717.46c0.74-3.021,4.101-3.97,6.73-2.78c2.55,3.53,0.37,7.8-0.21,11.602
		c2.33-4.08,6.27-7.33,10.989-8.069c5.58-1.341,11.2,0.92,15.931,3.76c4.87,2.94,9.392,7.32,10.59,13.08
		c1.46,6.25-1.71,12.96-7,16.399c-11.448,7.83-29.95-0.039-31.878-13.83c-0.811,4.711-1.5,9.479-2.771,14.101
		c-0.56,2.28-2.199,4.771-4.8,4.812c-2.91,0.391-4.96-2.069-6.18-4.352c-3.65-6.58-6.68-13.47-9.92-20.26
		c-0.82,6.88-1.15,13.851-2.729,20.609c-0.66,2.801-3.28,5.461-6.36,4.729c-3.17-1.188-4.53-4.561-5.68-7.46
		c-3.35-8.92-6.2-18.03-8.9-27.17c-3.04,0.09-6.07,0.21-9.11,0.312c0.57,7.688,1.47,15.351,2.08,23.038
		c0.32,2.25-0.52,5.53-3.18,5.853c-2.87,0.66-4.811-2.313-4.98-4.83c-0.84-7.83-1.22-15.71-1.29-23.59
		c-5.561,0.237-11.18,1.107-16.72,0.33c-2.33-0.143-4.39-2.513-3.46-4.83c1.17-1.82,3.48-1.67,5.35-1.94
		c11.01-0.779,22-2.21,33.05-2.12c2.06-0.1,4.53,0.46,5.52,2.48c0.88,8.5,5.46,16.1,7.13,24.449c0.63-5.939,1.35-11.869,1.63-17.852
		c0.21-3.05,0.38-7.26,3.86-8.43c3.23-1.26,5.89,1.49,7.1,4.18c3.87,7.71,7.2,15.689,11.09,23.4
		C269.504,734.56,269.754,725.8,272.153,717.46 M288.023,726.22c-2.95,2.86-4.12,7.479-2.5,11.32c2.58,6,9.811,9.68,16.16,8
		c3.28-0.97,6.33-3.98,6.012-7.62c0.068-2.29-1.489-4.2-3.052-5.69C300.184,728.17,294.014,726.04,288.023,726.22z"/>
	<path fill="#FEFEFE" d="M953.404,716.859c0.971-2.529,3.938-2.682,6.229-2.722c9.561-0.26,19.299,0.103,28.58,2.61
		c3.24,0.85,4.729,4.66,2.74,7.41c-1.66,0.647-3.393,1.55-5.191,0.948c-7.85-1.829-15.908-2.631-23.938-3.028
		c1.039,3.99,1.979,8.01,2.92,12.02c5.898-0.777,12.221-3.818,18.01-1.14c2.68,0.96,2.311,4.84-0.15,5.86
		c-4.889,2.618-10.738,1.857-16.039,2.93c0.539,2.72,1.131,5.43,1.65,8.16c6.129-1.302,12.309-2.393,18.398-3.881
		c2.109-0.602,4.318-0.722,6.5-0.392c1.852-8.62,3.818-17.25,6.682-25.6c0.92-2.683,2.529-6.05,5.859-5.99
		c3.5-0.479,5.25,3.03,6.301,5.76c3.309,8.312,6.799,16.562,10.17,24.853c3.01-8.03,5.607-16.211,8.93-24.12
		c1.379-3.21,3.629-7.41,7.779-6.932c3.551,0.739,4.881,4.489,5.979,7.489c3.359,9.92,6.32,19.96,9.371,29.98
		c0.93,2.72,1.279,6.21-1.092,8.31c-2.629,1.63-5.51-0.858-6.34-3.317c-3.33-9.73-5.779-19.74-9.109-29.462
		c-3.25,7.979-5.59,16.319-9.148,24.182c-1.182,2.68-3.602,5.47-6.84,4.95c-3.092-0.32-4.859-3.23-6.07-5.763
		c-3.561-7.448-6.68-15.1-9.609-22.81c-2.52,9.57-5.02,19.15-7.33,28.779c-0.59,2.431-1.688,6.25-5,5.271
		c-2.84-1.271-2.27-4.7-2.119-7.21c-7.811,1.95-15.762,3.18-23.67,4.601c-2.771,0.779-6.211-0.729-6.852-3.671
		C958.404,742.271,956.044,729.439,953.404,716.859z"/>
	<path fill="#FEFEFE" d="M917.923,718.01c3.16-3.71,8.391-3.35,12.801-3.05c6.74,0.61,14.199,1.979,18.939,7.26
		c3.93,4.36,4.26,10.899,2.25,16.21c-3.25,8.852-10.301,15.48-17.029,21.771c-1.881,2.061-5.74,2.399-7.35-0.129
		c-3.352-5.19-5.08-11.211-7.211-16.961c-2.199-6.972-4.9-13.859-5.961-21.109C913.804,719.8,915.904,718.109,917.923,718.01
		 M921.914,724.13c3.27,9.12,6.229,18.35,10.01,27.271c4.971-4.829,10.23-10.021,12.211-16.859c0.91-2.771,0.289-6.21-2.398-7.74
		C935.753,723.31,928.554,724.14,921.914,724.13z"/>
	<path fill="#FEFEFE" d="M1059.093,716.38c1.951-0.9,4.33,0.33,4.871,2.38c3.271,8.932,5.389,18.22,8.09,27.32
		c0.83,2.55,0.709,6.68-2.43,7.47c-3.24,0.36-5.211-2.95-6.021-5.62c-2.529-8.18-4.479-16.528-6.5-24.85
		C1056.484,720.779,1056.474,717.43,1059.093,716.38z"/>
	<path fill="#FEFEFE" d="M662.183,717.84c8.893-2.49,18.23,3.33,22.553,10.96c4.34,7.812,2.789,18.352-3.439,24.722
		c-5.881,6.25-15.881,8.67-23.721,4.868c-5.279-2.46-8.92-7.698-9.961-13.358c-1.391-6.939-0.318-14.609,3.779-20.479
		C653.843,720.83,658.423,719.74,662.183,717.84 M663.144,726.51c-3.119,1.063-7.148,2.642-7.449,6.47
		c-1.119,5.74-1.029,13.052,4.029,16.962c6.75,4.648,16.9-0.212,18.602-7.972C681.125,733.399,671.812,723.479,663.144,726.51z"/>
	<path fill="#FEFEFE" d="M851.214,718.55c2.84-2.33,6.66,0.05,8.148,2.812c5.221,8.54,9.16,17.79,13.148,26.948
		c1.9-8.067,3.531-16.188,5.191-24.31c0.408-2.17,1.35-4.95,4-5.021c1.85,0.149,2.52,2.141,4.01,2.949
		c4,2.21,6.709,6.021,9.729,9.352c3.711,4.5,7.75,8.761,11.021,13.601c-0.23-7.32-0.73-14.63-0.852-21.95
		c-0.189-2.79,2.119-5.58,5.109-4.811c3.42,0.181,3.352,4.33,3.709,6.859c0.4,9.631,1.08,19.279,0.82,28.932
		c0.131,3.448-3.16,6.91-6.699,5.438c-3.24-2.107-5.5-5.34-7.99-8.229c-5.408-6.891-11.238-13.449-16.479-20.47
		c-1.369,8.8-3.08,17.561-5.459,26.148c-0.48,2.261-2.41,4.471-4.941,3.891c-1.938,0.102-2.619-1.83-3.408-3.181
		c-5.029-1.85-5.811-7.75-8.119-11.899c-5.699,1.45-11.529,2.25-17.359,2.83c-2.75,3.472-2.531,9.591-7.031,11.642
		c-2.879,0.521-3.869-2.95-3.139-5.15c2.33-10.119,6.799-19.619,11.527-28.829C847.644,723.479,848.914,720.59,851.214,718.55
		 M848.103,740.01c3.49-0.78,7-1.51,10.48-2.438c-1.57-3.092-3.09-6.183-4.65-9.263C851.884,732.16,849.843,736.01,848.103,740.01z"
		/>
	<path fill="#FEFEFE" d="M1136.353,743.38c1.07-3.011,5.66-2.688,6.512,0.33c1.148,4.01,3.359,8.55,1.199,12.59
		c-2.398,1.67-5.77,0.92-6.828-1.898C1135.955,750.96,1135.273,746.939,1136.353,743.38z"/>
	<path fill="#FEFEFE" d="M1157.083,745.41c2.109-2.49,5.609-0.25,6.09,2.438c1.32,3.2,2.15,9.182-2.41,10
		C1155.183,757.3,1154.164,749.14,1157.083,745.41z"/>
	<path fill="#FEFEFE" d="M1175.224,746.47c2.563-2.14,5.801,0.479,7.313,2.67c2,2.53,3.209,7.21,0.26,9.46
		C1177.074,759.34,1172.443,751.14,1175.224,746.47z"/>
</g>
</svg>
