<?xml version="1.0" encoding="utf-8"?>
<!-- Generator: Adobe Illustrator 16.0.0, SVG Export Plug-In . SVG Version: 6.00 Build 0)  -->
<!DOCTYPE svg PUBLIC "-//W3C//DTD SVG 1.1//EN" "http://www.w3.org/Graphics/SVG/1.1/DTD/svg11.dtd">
<svg version="1.1" id="Слой_1" xmlns="http://www.w3.org/2000/svg" xmlns:xlink="http://www.w3.org/1999/xlink" x="0px" y="0px"
	 width="1846.32px" height="81.813px" viewBox="51.42 30.42 1846.32 81.813" enable-background="new 51.42 30.42 1846.32 81.813"
	 xml:space="preserve">
<g id="_x23_000000ff">
	<path fill="#FFFFFF" d="M318.53,35.89c-0.8-2.54,1.45-4.09,3.13-5.47c1.18,0.51,2.37,1.02,3.57,1.52
		c3.85,12.01,4.93,24.69,7.55,36.99c1.71-0.38,3.42-0.76,5.13-1.119c-1.3-7.591-2.63-15.201-3.24-22.891
		c-0.14-2.14-0.689-4.54,0.67-6.42c3.83-0.79,7.771-0.69,11.66-0.69c12.04,0.33,24.07,1.25,36.11,1.55
		c2.02,0.14,4.43,0.06,5.89,1.75c1.73,2.19,0.68,6.01-2.18,6.61c-3.57,0.71-7.24,0.19-10.84,0.01
		c-11.851-0.89-23.69-1.77-35.48-3.21c1.35,7.72,2.97,15.38,4.48,23.07c6.989-0.37,14-0.41,20.989-0.66
		c2.48,0.021,5.08-0.13,7.431,0.78c2.619,0.99,3.069,5.04,0.75,6.58c-1.511,1.04-3.44,0.851-5.17,0.94
		c-7.561-0.121-15.131-0.101-22.681-0.34c1.17,7.079,2.96,14.049,4.021,21.149c0.479,2.25-0.26,4.45-0.891,6.59
		c-2.109-0.11-5.18,0.56-5.88-2.149c-1.62-8.551-3.05-17.15-4.64-25.711c-1.721-0.189-3.44-0.379-5.15-0.58
		c1.561,7.961,3.33,15.891,4.801,23.871c0.619,2.619-0.811,5.64-3.5,6.379c-3.271,0.701-5.091-2.609-6.7-4.819
		c-10.87-16.39-22.551-32.229-33.76-48.38c0.06,14.61,0.25,29.25-0.61,43.84c-0.29,2.33-0.28,5.54-2.97,6.45
		c-3.97-1.72-2.57-7.05-3.11-10.5c-0.22-15.32-0.82-30.65-0.54-45.97c-0.1-2.87,1.37-6.12,4.61-6.3c3.46,0.26,5.38,3.521,7.3,5.99
		c9.439,13.4,19.54,26.359,28.53,40.07C324.189,68.609,321.811,52.16,318.53,35.89z"/>
	<path fill="#FFFFFF" d="M1176.13,44.17c2.99-2.81,7.55-1.82,10.8-0.02c4.971,2.75,9.48,6.53,12.83,11.14
		c1.17,2.03,2.561,5.34,0.351,7.11c-4.261-0.31-6.921-3.95-9.78-6.63c-2.71-2.79-5.99-4.98-9.61-6.38
		c0.46,6.69,5.181,11.74,9.11,16.74c3.96,5.101,8.33,10.04,11.04,15.979c2.47,5.461,1.7,12.711-3.021,16.73
		c-3.619,3.09-9.05,2.49-12.91,0.21c-7.129-4-12.729-11.649-12.8-20.01c-0.18-2.771,1.671-6.55,5.011-5.46
		c1.64,2.96,1.17,6.6,2.59,9.67c2.029,4.6,5.82,8.67,10.609,10.391c4.04,1.31,5.641-4.44,4.37-7.36
		c-4.479-10.761-14.489-18.05-19.39-28.58C1173.51,53.49,1172.57,47.74,1176.13,44.17z"/>
	<path fill="#FFFFFF" d="M1117.13,46.03c1.57-2.18,5.28-2.26,6.84-0.01c2.19,3.04,3.48,6.61,5.13,9.96
		c3.04,6.8,6.17,13.59,8.53,20.661c0.14-7.471,1.41-14.971,4.14-21.94c1.03-2.46,2.351-5.26,5.141-6.09
		c1.62,0.36,3.189,1.39,2.6,3.28c-2.43,9.86-6.27,20.39-2.89,30.5c2.1,5.879,10.49,3.659,13.29-0.49c5.84-8.16,1.9-18.891,5.7-27.66
		c1.81,0.24,4.439-0.23,5.09,2.07c0.89,3.13,0.53,6.44,0.54,9.66c-0.221,7.2-0.88,14.99-5.45,20.91c-4.88,6.5-14.66,9-21.78,4.75
		c1.221,2.681,3.59,7.511-0.199,9.16c-3.75,1.13-5.75-2.94-6.871-5.75c-5.149-12.86-10.229-25.75-15.459-38.57
		c-2.33,12.44-5.791,24.63-9.311,36.771c-0.689,2.1-1.6,4.93-4.17,5.22c-3.47,0.5-5.46-3.01-6.32-5.819
		c-2.74-8.94-3.68-18.291-5.55-27.431c-2.33,9.69-4.91,19.32-8.01,28.79c-0.78,2.17-1.51,4.47-3.11,6.18
		c-3.31,1.65-4.149-2.779-3.33-5.09c2.96-13.73,6.66-27.31,9.32-41.12c0.68-2.63,0.88-6.21,3.84-7.35c3.35-0.8,5.65,2.42,6.29,5.29
		c2.8,10.48,4.26,21.26,6.3,31.91c2.65-9.86,5.57-19.67,7.271-29.75C1115.26,51.35,1115.48,48.37,1117.13,46.03z"/>
	<path fill="#FFFFFF" d="M54.74,52.25c-1.7-2.84,1.05-6.49,4.25-5.8c15.17,1.92,30.24,4.61,45.27,7.4c2.5,0.55,6.05,1.21,6.46,4.28
		c0.79,3.17-2.72,5.94-5.68,4.91c-13.41-2.83-26.87-5.46-40.37-7.8c3.27,6.12,5.36,12.869,9.02,18.77
		c7.12,0.95,14.44,0.17,21.5,1.631c4,0.84,3.97,6.909-0.07,7.629C89,83.49,82.92,82.32,76.82,82.04
		c3.21,7.601,6.47,15.19,9.21,22.97c0.6,2.19,1.64,4.96-0.15,6.881c-2.63,0.819-4.01-1.9-5.05-3.781
		c-4.48-8.75-8.13-17.89-12.38-26.75c-5.62-0.959-12.21,0.201-17.03-3.27c0.05-0.55,0.16-1.64,0.22-2.189
		c3.89-2.67,8.99-1.61,13.43-2.051C61.67,66.63,58.29,59.4,54.74,52.25z"/>
	<path fill="#FFFFFF" d="M1816.46,47.54c9.82-0.73,19.66,0.18,29.49,0.23c9.87,0.33,19.76,0.44,29.649,0.76
		c2.59-0.16,5.791,2.57,4.16,5.22c-0.5,1.52-2.5,1.31-3.72,1.42c-9.26-0.11-18.53-0.28-27.771-0.96
		c5.271,9.35,10.4,18.79,14.91,28.54c2.061,4.66,4.521,9.24,5.641,14.25c0.64,2.109-1.65,4.88-3.801,4.05
		c-2.229-0.34-2.8-2.729-3.529-4.47c-5.35-14.67-13.2-28.24-19.46-42.5c-8.061-0.31-16.08-0.98-24.12-1.37
		c-2.33-0.33-5.061-0.13-6.87-1.86C1810.87,47.97,1814.4,47.9,1816.46,47.54z"/>
	<path fill="#FFFFFF" d="M1515.811,49.35c6.609-0.4,13.22-1.87,19.859-0.98c0.33,1.97,1.07,5.02-1.58,5.68
		c-4.55,1.25-9.34,1.06-13.99,1.55c0.431,12.47,0.271,24.97-0.17,37.44c0.141,2.93-1.56,5.29-3.949,6.8
		c-1.75-1.49-3.541-3.26-3.17-5.779c0-12.67,0.359-25.351,1.119-38c-11.949,0.71-23.99,1.94-35.93,0.79
		c-2.34-0.01-2.18-3.1-0.02-3.25C1490.47,51.33,1503.2,50.68,1515.811,49.35z"/>
	<path fill="#FFFFFF" d="M1019.77,50.72c1.17-0.24,2.381-0.32,3.601-0.439c2.569,7.59,2.77,15.71,4.29,23.54
		c0.67,6.92,3.2,13.789,1.97,20.789c-2.27,0.721-4.76,1.121-6.64-0.709c-10.86-8.381-19.94-18.801-29.391-28.69
		c-0.569,9.729-1.6,19.45-3.46,29.021c-0.569,3.189-2.6,6.01-5.359,7.67c-0.521-0.17-1.561-0.521-2.08-0.7
		c-0.7-4.89,0.85-9.69,1.79-14.431c-8.721,3.021-17.92,4.301-26.74,7c-2.2,0.67-5.37,1.7-6.79-0.84
		c-1.35-3.41-0.979-7.22-1.399-10.82c-1.391-0.84-3.44-1.159-3.711-3.06c0.961-1.17,2.09-2.2,3.181-3.26
		c-0.11-2.94-0.17-5.89-0.21-8.83c-1.73-0.62-3.381-1.41-4.721-2.67c2.211-1.83,4.62-3.41,6.931-5.12
		c9.76,0.46,19.189-4.09,29.01-3.33c1.33,0.28,2.46,1.14,3.39,2.11c0.431,3.1-3.149,4.09-5.52,4.54
		c-7.78,1.18-15.59,2.21-23.36,3.49c0.24,2.8,0.49,5.6,0.74,8.4c5.53-1.229,11.06-2.729,16.729-3.239
		c2.32-0.301,4.45,0.85,6.521,1.719c-1.44,1.98-3.04,4.141-5.59,4.65c-5.65,1.4-11.47,2-17.17,3.131
		c0.18,2.27,0.37,4.549,0.55,6.829c7.14-2,14.39-3.61,21.55-5.54c2.431-0.699,4.96-0.85,7.49-0.939c1.24-8.32,1.95-16.7,2.83-25.07
		c0.1-1.72,1.189-4.22,3.319-3.42c1.73,1.27,2.351,3.66,4.021,5.07c9.19,8.47,17.53,17.821,26.78,26.23
		c-1.33-8.899-2.78-17.79-3.98-26.71C1018.13,54.94,1017.66,52.13,1019.77,50.72z"/>
	<path fill="#FFFFFF" d="M1742.68,52.85c0.41-2.69,4.221-3.6,5.851-1.46c1.43,2.04,1.45,4.66,2.01,7.02
		c1.01-0.92,1.36-3.41,3.14-2.98c0.561,0.35,1.69,1.03,2.25,1.38c9.99-1.17,20.08-1.18,30.131-0.75c2.899,0.28,7.09,0.48,8.029,3.94
		c0.32,2.2-1.939,3.85-3.98,3.42c-10.92-1.14-21.909-1.24-32.879-1.36c0.739,3.05,1.43,6.12,2.069,9.2
		c8.271-0.85,16.511-2.01,24.81-2.689c2.561-0.59,4.94,1.97,4.32,4.51c-0.869,2.12-3.31,2.6-5.32,2.811
		c-7.6,0.68-15.199,1.279-22.819,1.26c0.58,3.85,0.979,7.72,1.351,11.6c15.06-4.65,30.81-6.71,46.459-8.141
		c-3.49-3.18-7.209-7.489-6.02-12.59c1.359-5.319,7.14-7.6,12.01-8.609c7.11-1.15,15.23-1.13,21.311,3.28
		c1.97,1.38,2.17,4.02,0.569,5.78c-6.52-4.93-15.489-4.93-22.909-2.26c-2.181,0.8-5.701,2.649-3.521,5.33
		c7.05,8.53,18.5,11.11,28.62,14.22c2.14,0.76,5.46,2.771,4.189,5.471c-2.859,2.64-7.01,1.8-10.38,0.89
		c-7.159-1.979-14.25-4.64-20.37-8.91c-0.949,2.09-2.229,4.399-4.819,4.521c-15.351,1.93-31.011,2.899-45.851,7.59
		c-1.729,0.8-3.75-0.211-3.97-2.101c-1.14-5.1-0.89-10.399-2.05-15.51c-0.78-0.86-1.52-1.72-2.24-2.59
		c0.38-1.13,0.83-2.24,1.35-3.33c-0.59-3.729-0.59-7.85-3.039-10.94c0.129,13.37-0.34,26.98-4.24,39.87
		c-1.44,4.29-3.51,9.13-7.99,10.95c-4.21,1.75-8.68-0.859-11.49-3.91c-2.89-3.3-5.29-7.4-5.51-11.859
		c-0.391-1.75,2.28-4.36,3.43-2.101c2.73,4.13,4.23,9.73,9.18,11.87c3,1.23,4.36-2.9,5.311-5.029
		c3.689-11.471,4.439-23.701,4.28-35.671C1744.04,60.88,1742.859,56.91,1742.68,52.85z"/>
	<path fill="#FFFFFF" d="M373.74,58.78c14.56-3.49,29.37-5.82,44.199-7.76c2.351-0.17,5.181-0.79,7.11,1
		c1.87,2.2,0.681,6.13-2.35,6.46c-7.86,1.24-15.84,1.76-23.72,2.91c-1.811,13.07-6.15,25.58-9.25,38.35
		c-1.2,4.029-1.23,9.24-5.761,11.1c-1.12-0.91-2.3-1.76-3.29-2.81c-0.81-2.341,0.04-4.79,0.521-7.101
		c3.41-13.08,7.29-26.039,11.85-38.77c-7.04,0.93-14.05,2.14-21.12,2.77c-1.91,0.43-3.41-0.9-4.92-1.8
		C368.54,60.74,370.99,59.29,373.74,58.78z"/>
	<path fill="#FFFFFF" d="M937.36,56.24c0.35-2.32,1.689-5.39,4.55-4.96c2.64,0.26,3.01,3.51,2.56,5.6
		c-1.58,9.69-3.13,19.39-4.51,29.11c-0.54,2.72-0.84,6.33-3.86,7.449c-2.97,0.701-5.119-1.84-6.569-4.02
		c-4.931-7.49-9.53-15.2-13.9-23.04c-2.38-4.3-5.11-8.52-6.2-13.39c0.721-0.42,2.16-1.26,2.881-1.68
		c2.069,1.73,3.879,3.77,5.289,6.09c5.261,8.4,10.37,16.88,15.65,25.26C934.53,73.84,935.78,65.01,937.36,56.24z"/>
	<path fill="#FFFFFF" d="M1641.76,53.92c-0.21-1.54,1.24-3.67,2.881-2.48c2.989,3.34,3.09,8.18,4.02,12.37
		c5.35-4.15,11.41-7.87,18.25-8.8c3.4-0.46,7.52,0.42,9.39,3.59c1.94,3.14-0.989,6.73,0.22,10c0.33,1.291,0.75,2.561,1.181,3.83
		c6.159-4.18,12.61-9.39,20.43-9.42c3.94,0.04,6.7,3.36,7.41,7c0.149-5.91,5.01-10.17,10.17-12.16
		c7.479-3.94,18.32-1.45,21.771,6.72c3.85,9.37-3.601,20.65-13.49,21.61c-8.561,1.51-17.811-4.35-18.98-13.21
		c-1.64,3.65-4.41,6.58-7.58,8.94c5.51,2.96,10.87,6.21,16.141,9.59c1.75,1.05,3.729,3.35,2.199,5.41
		c-0.959,2.07-3.75,1.88-5.369,0.79c-6.561-3.72-12.4-8.591-18.98-12.28c-2.89,1.391-5.87,2.561-8.89,3.561
		c0.579,4.27,2.899,9.55-0.41,13.27c-1.5,0.21-2.49-1.08-3.19-2.16c-1.81-3.06-2.21-6.67-2.939-10.09
		c-1.19-6.52-3.08-12.891-4.34-19.391c-6.221,4.311-13.53,6.541-20.811,8.25c0.221,6.121,2.74,12.98-0.73,18.631
		c-3.729,0.26-3.829-4.57-4.439-7.21c-1.07-4.351,0.53-9.74-3.12-13.091c-2.14-1.299,0.44-2.799,1.181-4.149
		C1643.26,66.65,1641.76,60.34,1641.76,53.92 M1656.359,65.4c-2.76,1.62-5.989,3.09-7.149,6.32c7.8-1.649,16.49-3.62,21.8-10.1
		C1665.8,60.65,1660.811,62.99,1656.359,65.4 M1711.17,72c0.88,5.98,8,9.21,13.439,7.47c5.041-1.34,8.891-7.09,7-12.2
		c-2.079-4.35-7.579-4.529-11.529-6.109C1715.189,62.29,1710.76,66.77,1711.17,72 M1679.62,77.91c0.41,1.64,0.87,3.29,1.33,4.93
		c6.44-4.21,15.96-5.98,18.67-14.09C1691.85,68.51,1685.77,73.99,1679.62,77.91z"/>
	<path fill="#FFFFFF" d="M858.33,54.13c-0.08-2.3,3.58-2.88,4.42-0.83c2.62,4.99,3.45,10.68,5.03,16.05
		c6.62-5.109,13.52-10.359,21.67-12.7c3.649-1.21,8.45,0.6,9.069,4.74c0.91,6.31-4.42,11.08-9.02,14.44
		c4.63,4.3,8.939,8.96,12.811,13.95c1.379,1.71,2.439,4.39,0.819,6.3c-2.8,1.79-5.95-0.29-7.69-2.55
		c-3.959-4.811-7.909-9.65-12.079-14.28c-3.851,1.859-7.761,3.57-11.78,5.03c1.06,3.649,2.29,7.26,3.62,10.829
		c-0.28,0.621-0.86,1.871-1.15,2.49c-2.56-0.609-5.649-1.27-6.52-4.16c-3.24-8.979-5.32-18.34-7.29-27.68
		C859.49,61.92,858.11,58.09,858.33,54.13 M877.561,69.54c-3.061,2.25-6.99,3.851-8.601,7.53C875.27,75.16,881.4,72.5,887,69
		c2.54-1.52,4.34-3.94,5.64-6.57C887.05,63.41,882.22,66.5,877.561,69.54z"/>
	<path fill="#FFFFFF" d="M711.05,54.55c9.28-0.33,18.61-0.65,27.88,0.11c2.32,0.22,5.53,0.6,6.16,3.35c-0.13,1.2-0.27,2.4-0.41,3.6
		c-9.229,1.14-18.54-0.44-27.8-0.05c1.08,11.11,1.49,22.28,2.22,33.43c-0.17,3.17,0.811,7.26-1.949,9.57
		c-3.391-0.83-5.23-4.271-5.181-7.57c-0.67-11.811-1.62-23.631-1.34-35.46c-6.88-0.14-13.77,0.17-20.63-0.38
		c-1.48-0.29-3.99-0.1-3.91-2.22c0.1-1.61,1.79-1.9,3.05-2.28C696.311,54.94,703.73,55,711.05,54.55z"/>
	<path fill="#FFFFFF" d="M1433.061,60c1.209-2,2.619-4.42,5.18-4.78c1.729-0.33,3.38,0.771,4.31,2.18
		c2.22,3.25,3.83,6.87,5.66,10.35c1.61,3,2.64,6.55,5.58,8.58c1.729,0.75,0.37,2.439,0.25,3.72c1.5,4.97,4.05,9.761,4.22,15.05
		c0.26,2.851-3.699,4.381-5.21,1.83c-2.72-5.06-3.71-10.869-6.08-16.1c-5.729,0.33-11.489,0.29-17.189-0.33
		c-2.851,4.641-4.28,11.28-10.05,13.15c-0.051,2.97,0.029,5.99-0.53,8.92c-0.17,1.43-2.41,1.699-2.97,0.41
		c-3.44-5.45-4.351-11.94-5.24-18.19c-7.57,0.49-15.141,0.97-22.721,1.149c-0.75,4.69-0.959,9.5-2.289,14.08
		c-0.49,2.121-3.2,3.7-4.99,2.021c-2.19-2.431-0.75-5.931-0.641-8.83c-10.5,0-21.01-1.979-30.819-5.7
		c-5.78-2.33-11.65-5.39-15.36-10.56c-2.48-3.341-2.55-8.41,0.45-11.46c3.47-3.58,8.71-4.46,13.46-4.94
		c9.79-0.79,19.72,1.02,28.84,4.59c2.23,1.02,5.27,2.11,5.51,4.969c-1.26,1.961-3.59,0.66-5.359,0.421
		c-10.07-2.87-20.721-4.811-31.16-3.021c-2.771,0.4-5.21,1.79-7.41,3.42c2.79,4.84,7.78,7.711,12.85,9.66
		c9.58,3.79,19.92,5.1,30.141,5.63c1.199-7.47,2.97-14.84,4.939-22.14c0.601-1.93,1.17-4.67,3.87-4.16
		c0.83,6.59-0.659,13.28-1.22,19.85c7-0.949,14.029-1.739,21.1-2.01c-0.449-4.859-1.35-9.75-0.81-14.63
		c0.12-1.76,1.649-2.87,2.66-4.15c1.12,1.5,2.37,3.04,2.71,4.96c1.91,8.27,2.88,16.72,4.25,25.09
		C1423.59,79.311,1427.96,69.47,1433.061,60 M1438.359,63.43c-1.92,3.839-3.859,7.669-5.799,11.5c3.789-0.27,7.59-0.57,11.409-0.76
		C1442.189,70.54,1440.359,66.939,1438.359,63.43z"/>
	<path fill="#FFFFFF" d="M1247.47,56.8c3.65-0.83,7.561-1.44,11.22-0.32c1.7,0.53,3.45,2.5,2.041,4.21
		c-5.86,1.24-12.011,1.71-17.391,4.62c-6.68,3.49-13.689,7.959-16.95,15.03c-1.489,3.62,2.771,5.811,5.671,6.42
		c11.229,2.11,23.1-0.91,32.59-7.13c1.88-1.25,5.369-2.38,6.55,0.351c1.14,3.39-1.71,6.229-4.33,7.859
		c-8.58,5.311-18.78,7.88-28.851,7.75c-5.729-0.23-11.989-1.25-16.25-5.439c-2.97-2.771-4.239-7.19-3.029-11.09
		c1.43-5.041,5.29-8.9,9.17-12.201C1233.64,62.21,1240.3,58.6,1247.47,56.8z"/>
	<path fill="#FFFFFF" d="M145.29,59.2c3.8-1.89,8.96-3,12.47,0.05c2.85,2.41,2.94,6.68,1.521,9.891
		c-2.92,6.93-9.24,11.569-15.4,15.459c6.15,5.03,11.04,11.33,16.01,17.471c1.48,1.949,3.45,4.289,2.41,6.92
		c-0.97,1.06-2.11,1.93-3.22,2.83c-2.57-1.29-4.73-3.23-6.34-5.61c-4.54-6.33-9.71-12.25-13.43-19.12c-3.7,1.69-7.48,3.2-11.33,4.5
		c1.48,5.35,3.38,10.96,1.42,16.471c-2.59-1.451-5.7-2.91-6.47-6.091c-2.8-8.84-4.7-17.96-6.36-27.09
		c-0.72-3.479-0.74-7.06,0.02-10.53c1.28,0.02,2.56,0.02,3.84,0.14c2.74,4.15,2.9,9.42,4.27,14.1
		C130.11,70.82,136.77,63.55,145.29,59.2 M147.06,65.11c-7.77,4.22-13.84,10.88-19.26,17.74c7.91-2.729,15.83-6.199,22.03-11.97
		c2.15-1.94,3.39-4.6,4.44-7.24C151.81,63.69,149.24,63.83,147.06,65.11z"/>
	<path fill="#FFFFFF" d="M823.63,58.53c7.69-1.35,15.56-2.28,23.38-1.521c3.87,0.39,8.15,2.4,9.32,6.41
		c1.26,4.77-1.05,9.53-3.46,13.53c-4.91,7.899-12.11,13.96-19.2,19.83c-1.85,1.86-5.06,0.689-5.54-1.811
		c-3.479-10.96-5.28-22.38-8.76-33.34c-0.91-1.62,0.399-3.02,1.1-4.41C821.26,57.55,822.84,58.2,823.63,58.53 M826.33,65.54
		c2.43,7.67,4.439,15.46,6.57,23.21c7.279-6.561,15.56-13.67,17.369-23.84C842.41,62.62,834.24,64.58,826.33,65.54z"/>
	<path fill="#FFFFFF" d="M1463.76,59.4c-0.09-2.03,2.75-2.94,3.5-0.97c1.26,3.78,1.15,7.86,1.62,11.79
		c9.181-3.81,18.94-7.43,29.021-6.91c4.09-0.01,7.359,4.78,4.43,8.23c-4.52,5.11-11.439,7-17.53,9.54
		c4.78,5.34,10.011,10.609,12.7,17.39c0.46,1.12,0.37,2.21-0.27,3.29c-8.811-2.84-12.801-11.869-18.221-18.55
		c-3.56,0.7-6.99,1.94-10.47,2.899c-0.271,3.601-0.24,7.24-0.851,10.811c-0.239,2.2-2.449,4.29-4.689,3.189
		c-2.75-2.209-1.76-6.129-1.82-9.18C1462.061,80.43,1461.891,69.79,1463.76,59.4 M1477.609,73.5c-3.52,1.18-7.27,2.23-9.899,5.02
		c9.14-1.189,17.931-4.68,26.19-8.699C1488.32,70.29,1482.9,71.74,1477.609,73.5z"/>
	<path fill="#FFFFFF" d="M541.59,62.59c0.971-2.34,2.32-5.79,5.5-5.11c2.53,0.89,2.87,3.76,3.08,6.05
		c0.52,6.31,0.96,12.62,1.35,18.93c2.48-6.819,5.561-13.42,9.021-19.8c1.18-1.99,2.71-4.92,5.53-4c2.27,1.19,2.399,3.98,2.619,6.21
		c0.631,9.021,0.48,18.08,0.541,27.12c0.119,2.83-0.82,5.529-2.181,7.96c-1.97-1.39-3.43-3.4-3.569-5.86
		c-0.83-8-0.15-16.08-0.62-24.1c-2.94,6.479-5.71,13.04-8.16,19.72c-0.94,2.32-1.82,5.399-4.78,5.7c-2.95-0.67-3.09-3.99-3.45-6.42
		c-0.67-6.19-1.1-12.41-1.53-18.631c-2.81,9.91-4.6,20.091-7.81,29.871c-0.62,1.85-2.149,4.949-4.43,3.109
		c-1.57-3.05,0.29-6.609,0.739-9.77C536.01,83.21,537.85,72.609,541.59,62.59z"/>
	<path fill="#FFFFFF" d="M598.689,60.64c0.891-2.07,3.03-3.76,5.4-2.98c3.21,1.42,2.82,5.58,3.4,8.47c0.82,9.97,1.59,19.99,1.33,30
		c0.229,2.53-2.16,5.479-4.82,4.16c-2.22-1.24-2.26-4.03-2.42-6.25c-0.18-7.94-0.32-15.88-0.58-23.81
		c-3.61,6.819-6.58,13.949-9.95,20.89c-0.88,1.979-2.739,3.89-5.11,3.2c-2.039-0.95-2.449-3.34-2.789-5.32
		c-0.78-5.609-1.271-11.25-1.61-16.91c-1.93,7.45-3.75,14.93-5.04,22.52c-0.6,2.65-0.71,5.531-2.23,7.871
		c-2.52,0.3-2.6-2.771-2.619-4.48c0.13-8.77,2.16-17.4,4.529-25.811c1.37-4.14,2.41-8.529,4.92-12.159
		c1.811-2.18,5.29-0.35,5.431,2.24c1.04,6.4,1.43,12.9,2.069,19.36C591.59,74.46,595.16,67.55,598.689,60.64z"/>
	<path fill="#FFFFFF" d="M673.53,64.51c-0.67-2.16-0.11-5.12,2.46-5.65c2.89-0.36,3.899,2.8,4.479,5
		c2.69,10.031,5.83,19.97,7.71,30.201c0.36,2.56,1.101,6.06-1.529,7.72c-2.12,1.52-4.73,0.36-6.69-0.811
		C667.08,93.07,656.17,82.5,645.52,71.9c-2.239,9.41-4.77,18.76-7.75,27.959c-0.89,2.341-1.619,5-3.729,6.561
		c-1.71,0.53-3.39-0.6-3.4-2.41c0.2-3.46,1.431-6.75,2.54-9.99c-1.649,1.66-3.54,3.801-6.17,3.2c-3.75-0.649-6.52-3.63-8.75-6.5
		c-4.729-6.2-7.13-13.81-8.91-21.3c-0.31-1.82-0.92-5.23,1.761-5.35c2.659-0.43,3.31,2.79,4.14,4.62
		c2.64,7.69,5.47,15.74,11.7,21.32c-0.33-7.8-2.73-15.33-3.08-23.109c-0.3-2.41,1.5-5.25,4.229-4.47c2.641,1.1,2.66,4.24,3.011,6.64
		c0.79,8.16,3.529,16.24,2.26,24.51c1.36-7.37,3.72-14.5,5.34-21.811c0.8-2.729,1.07-5.839,3.04-8.05c2.9-1.9,5.91,0.62,7.95,2.59
		c9.87,9.47,19.78,18.99,31.09,26.75C678.78,83.439,675.9,74.04,673.53,64.51z"/>
	<path fill="#FFFFFF" d="M175.96,62c4.8-2.09,10.57-3.91,15.44-0.94c-3.79,2.69-8.4,3.67-12.41,5.92
		c-6.47,3.55-12.07,9.14-14.42,16.26c9.24-3.07,17.63-8.96,27.56-9.71c4.5-0.37,9.86,0.79,12.24,5.03c2.2,4.02,0.2,8.939-3,11.77
		c-6.36,5.79-14.91,8.35-23.17,9.95c-4.1,0.62-8.51,1.55-12.49-0.07c-2.52-0.97-3.24-3.771-4.18-6.01
		c6.2-1.62,12.729-0.94,18.93-2.601c6.07-1.539,12.77-3.27,17.04-8.17c1.72-2.359-1.83-2.89-3.51-2.949
		c-9.37,0.06-17.3,5.75-25.86,8.75c-2.69,0.939-6.2,1.25-8.28-1.09c-2.66-2.891-1.85-7.301-0.36-10.561
		C162.85,70.62,169,65.21,175.96,62z"/>
	<path fill="#FFFFFF" d="M199.9,64.24c10.91-2.32,22.02-3.67,33.13-4.69c2.91-0.02,6.61-0.8,8.76,1.72
		c1.97,2.25,0.02,6.22-2.97,6.11c-5.61,0.11-11.23,0.28-16.81,0.87c1.32,9.79,0.83,19.68,0.73,29.52
		c-0.17,2.391,0.05,4.92-0.93,7.15c-1.34,2.721-5.83,1.939-6.34-0.98c-0.52-2.939-0.12-5.949-0.02-8.909
		c0.56-8.761,0.27-17.55,0.83-26.311c-7.29,0.13-15.08,2.421-21.96-0.96C195.79,66.06,197.59,64.56,199.9,64.24z"/>
	<path fill="#FFFFFF" d="M904.189,66c-0.199-2.21-0.26-5.64,2.641-5.97c2.43,0.31,2.55,3.229,3.189,5.09
		c1.53,7.58,3.181,15.16,4.2,22.84c0.49,2.26-0.78,4.21-2.03,5.96c-1.959-1.5-4.18-3.08-4.579-5.7
		C905.95,80.91,904.97,73.45,904.189,66z"/>
	<path fill="#FFFFFF" d="M1209.46,61.34c1.62-0.56,3.63,0.17,4.07,1.96c1.77,6.48,2.359,13.23,3.89,19.771
		c0.71,4,2.23,7.88,2.3,11.97c-0.01,2.39-2.53,4.37-4.83,3.38c-2.77-1.34-3.3-4.68-4-7.34c-1.729-7.93-3.13-15.96-3.67-24.061
		C1207.14,65.03,1207.21,62.11,1209.46,61.34z"/>
	<path fill="#FFFFFF" d="M473.66,64.76c6.38-2.2,13.359-3.96,20.09-2.45c2.311,0.36,4.03,3.68,1.49,4.98
		c-3.63,0.54-7.36,0.13-10.95,0.99c-8.11,1.829-15.81,5.579-22.26,10.829c-2.53,2.171-5.11,4.66-6.08,7.951
		c-0.59,2.409,2.35,2.64,4.02,2.97c7.03,0.72,13.97-1.271,20.601-3.421c5.38-1.67,10.29-4.89,16.04-5.26
		c1.76-2.91,3.8-5.63,5.479-8.59c4.521-2.65,9.49-5.05,14.87-4.88c5.92,0.101,12.43,2.13,15.89,7.261
		c2.98,4.299,2.53,10.209-0.069,14.569c-5.71,9.74-19.03,14.91-29.53,10.13c-4.6-1.99-7.24-6.65-8.12-11.4
		c-9.24,5.07-19.52,8.461-30.04,9.381c-5.279,0.27-11.64-0.221-15.13-4.75c-3.021-4.15-1.39-9.79,1.58-13.48
		C457.14,72.49,465.311,67.891,473.66,64.76 M509.42,75.439c-5.7,2.94-10.54,11.271-5.82,16.961c6.34,5.34,16.33,2.369,21.521-3.26
		c3.02-2.891,4.93-8.4,1.36-11.61C521.78,73.62,514.99,74.061,509.42,75.439z"/>
	<path fill="#FFFFFF" d="M1527.95,72.92c0.989-5.859,6.53-9.86,12.09-10.95c7.76-1.53,15.83,0.12,23.14,2.84
		c2.95,1.17,6.79,3.49,5.99,7.25c-0.62,2.18-2.93,2.72-4.8,3.25c-0.07-0.881-0.21-2.65-0.28-3.53
		c-7.199-2.681-15.18-4.29-22.779-2.521c-2.74,0.59-4.61,2.79-6.23,4.881c5.48,4.189,12.59,4.659,19.01,6.5
		c6.74,1.85,14.24,3.779,18.82,9.469c2.59,3.131,2.05,8.11-1.221,10.541c-4.97,3.819-11.659,3.81-17.629,3.52
		c-8.181-0.76-16.49-2.561-23.66-6.68c-3.12-1.73-6.101-5.28-4.92-9.051c1.479-2,4.02-0.459,5.859,0.211
		c10.51,5.819,23.29,9.279,35.17,6.02c-9.63-7.4-22.64-6.609-33.119-12.12C1529.91,80.76,1527.22,76.95,1527.95,72.92z"/>
	<path fill="#FFFFFF" d="M760.939,64.03c1.271-1.57,4.271-2.53,5.221-0.13c-1.561,5.88-5.11,10.911-8.12,16.11
		c-4.37,7.561-9.101,14.9-13.479,22.46c-1.291,1.97-2.391,4.32-4.57,5.46c-1.641,1.01-3.68-0.229-4.36-1.81
		c-0.68-2.4,0.71-4.66,1.8-6.7c2.721-4.63,5.67-9.12,8.54-13.67c-4.83-4.41-9.76-8.689-14.63-13.05c-1.689-1.63-3.75-3.29-4.02-5.8
		c1.66-2.291,4.42-0.47,6.31,0.539c5.73,3.631,10.76,8.23,15.97,12.561C753.23,74.59,756.38,68.75,760.939,64.03z"/>
	<path fill="#FFFFFF" d="M688.51,64.49c1.33-0.82,3.17-0.38,3.771,1.14c2.09,3.87,3.28,8.13,4.92,12.2
		c1.439,4.14,3.42,8.1,4.489,12.359c0.471,1.761-0.56,3.721-2.55,3.61c-3.81-0.649-4.54-5.14-5.88-8.11
		c-2.05-6.539-5.43-12.899-5.67-19.839C687.82,65.51,688.28,64.83,688.51,64.49z"/>
	<path fill="#FFFFFF" d="M100.84,74.02c-0.44-2.279-0.75-6.22,2.3-6.66c2.82-0.549,4.01,2.66,4.65,4.791
		c2.29,8.069,4.39,16.18,6.67,24.25c0.55,2.17,1.3,4.34,1.27,6.609c-0.31,2.15-1.95,3.771-3.06,5.561
		c-2.22-1.95-4.52-4.07-5.19-7.08C104.97,92.41,102.61,83.27,100.84,74.02z"/>
	<path fill="#FFFFFF" d="M1889.25,91.29c4.49-2.31,10.75,2.97,7.67,7.53C1892.82,103.51,1884.49,95.09,1889.25,91.29z"/>
</g>
</svg>
