<?xml version="1.0" encoding="UTF-8" ?>
<!DOCTYPE svg PUBLIC "-//W3C//DTD SVG 1.1//EN" "http://www.w3.org/Graphics/SVG/1.1/DTD/svg11.dtd">
<svg width="1123pt" height="69pt" viewBox="0 0 1123 69" version="1.1" xmlns="http://www.w3.org/2000/svg">
<g id="#ffffffff">
<path fill="#ffffff" opacity="1.00" d=" M 939.90 7.14 C 940.02 4.89 940.62 2.07 943.10 1.33 C 946.32 0.24 948.89 2.98 950.75 5.20 C 959.87 16.45 967.70 28.66 975.42 40.88 C 976.45 42.58 977.34 44.66 976.56 46.64 C 975.69 49.06 972.18 49.14 970.60 47.42 C 966.58 43.32 964.22 37.94 960.57 33.56 C 955.44 33.41 950.30 33.88 945.17 33.65 C 944.80 38.29 945.28 43.21 943.47 47.59 C 941.23 49.82 939.55 46.11 939.57 44.12 C 938.62 31.83 939.03 19.44 939.90 7.14 M 946.33 12.27 C 946.00 17.38 945.81 22.49 945.35 27.59 C 948.92 27.08 952.52 26.78 956.11 26.38 C 952.90 21.64 949.45 17.06 946.33 12.27 Z" />
<path fill="#ffffff" opacity="1.00" d=" M 1013.74 4.98 C 1013.79 2.52 1015.94 1.22 1017.99 0.49 C 1022.39 2.25 1025.22 6.24 1028.28 9.65 C 1035.55 18.64 1042.37 28.08 1047.82 38.29 C 1049.16 40.32 1048.38 42.57 1047.27 44.47 C 1045.42 44.58 1043.13 44.97 1042.04 43.07 C 1039.23 38.95 1036.96 34.48 1034.13 30.37 C 1029.38 31.18 1024.59 31.70 1019.79 31.98 C 1019.55 36.46 1020.52 41.45 1018.13 45.51 C 1013.57 42.98 1014.98 36.50 1013.89 32.16 C 1012.55 31.30 1011.32 30.28 1010.31 29.06 C 1011.16 27.61 1012.32 26.42 1013.66 25.39 C 1013.38 18.60 1012.88 11.74 1013.74 4.98 M 1019.58 10.19 C 1019.56 14.90 1019.57 19.60 1019.65 24.31 C 1022.79 23.78 1025.92 23.23 1029.06 22.67 C 1026.02 18.42 1022.83 14.29 1019.58 10.19 Z" />
<path fill="#ffffff" opacity="1.00" d=" M 361.50 6.42 C 363.20 4.76 364.55 2.62 366.79 1.61 C 368.01 1.90 369.22 2.21 370.43 2.56 C 371.37 4.62 371.96 7.18 369.92 8.82 C 365.08 12.88 360.13 16.81 355.36 20.96 C 364.30 28.33 372.87 36.15 381.16 44.24 C 379.28 39.77 377.70 35.18 376.23 30.55 C 373.91 30.31 371.36 30.73 369.30 29.44 C 368.63 26.44 372.87 26.20 374.80 25.33 C 374.19 22.30 373.28 19.17 373.95 16.08 C 375.17 13.94 377.52 12.75 379.56 11.52 C 388.20 7.34 397.74 5.71 406.97 3.39 C 409.87 2.40 413.41 4.89 412.73 8.07 C 412.37 11.60 408.19 12.07 405.44 12.68 C 396.68 14.23 387.87 15.54 379.16 17.39 C 379.89 19.66 380.56 21.95 381.30 24.22 C 387.88 23.44 394.51 23.18 401.12 22.61 C 402.66 22.37 404.03 23.30 405.46 23.73 C 406.10 26.09 406.01 29.43 402.98 29.92 C 396.38 30.59 389.68 30.03 383.05 30.26 C 384.43 34.41 385.90 38.53 387.31 42.67 C 395.36 41.32 403.25 39.24 411.14 37.16 C 413.79 36.77 417.35 35.20 419.37 37.80 C 420.76 40.15 418.88 43.28 416.11 42.94 C 408.93 43.22 402.03 45.33 394.95 46.35 C 392.08 46.89 388.94 46.77 386.49 48.61 C 386.78 50.61 386.64 52.60 385.44 54.29 C 384.54 54.65 383.66 55.01 382.78 55.39 C 379.13 54.37 377.14 50.95 374.67 48.38 C 367.41 39.93 359.22 32.34 351.79 24.04 C 349.93 25.61 348.05 27.15 346.17 28.69 C 346.80 33.79 347.67 38.88 347.79 44.03 C 347.91 45.99 346.15 48.68 343.94 47.71 C 341.51 47.09 341.11 44.11 340.77 42.02 C 339.45 32.76 338.64 23.43 337.94 14.11 C 337.82 10.98 337.49 6.74 341.07 5.36 C 345.19 9.83 344.16 16.62 345.40 22.20 C 350.56 16.74 356.19 11.74 361.50 6.42 Z" />
<path fill="#ffffff" opacity="1.00" d=" M 12.81 5.75 C 15.09 3.92 16.15 7.06 15.80 8.95 C 15.43 25.74 12.44 42.36 8.89 58.73 C 21.28 50.22 34.09 42.32 47.17 34.92 C 50.05 33.36 52.94 31.63 56.26 31.25 C 55.90 28.35 55.62 25.43 55.35 22.51 C 52.82 22.88 49.93 23.96 47.72 22.13 C 46.57 17.97 52.08 17.16 54.79 15.67 C 55.00 12.59 55.17 9.40 56.97 6.77 C 58.63 8.65 59.37 11.04 60.00 13.41 C 67.88 10.36 75.63 6.68 83.96 4.97 C 86.95 4.14 89.56 6.07 91.36 8.24 C 89.91 9.88 88.46 11.71 86.23 12.28 C 77.79 14.90 69.43 17.78 61.07 20.63 C 62.07 26.06 62.92 31.52 63.92 36.95 C 69.09 34.01 74.28 31.01 79.84 28.86 C 81.96 27.98 84.87 27.79 86.28 29.97 C 87.28 32.32 85.27 34.35 83.28 35.21 C 77.26 38.01 71.12 40.56 65.04 43.23 C 65.90 48.13 66.94 53.01 68.00 57.88 C 76.02 52.26 84.17 46.81 92.56 41.76 C 94.36 40.34 96.46 41.04 98.44 41.60 C 98.85 42.71 99.17 43.84 99.40 44.99 C 98.93 47.07 97.08 48.26 95.40 49.31 C 86.66 54.79 77.85 60.21 69.65 66.48 C 67.15 68.70 62.72 67.54 61.85 64.26 C 60.15 58.16 59.31 51.85 58.25 45.61 C 56.89 45.68 55.52 45.69 54.16 45.64 C 55.19 42.91 58.70 41.34 57.24 37.94 C 40.40 46.30 24.58 56.55 8.96 66.96 C 7.06 68.17 4.25 69.19 2.41 67.34 C 0.54 65.60 1.17 62.75 1.70 60.55 C 5.73 45.65 8.42 30.42 10.42 15.13 C 10.99 11.96 11.07 8.55 12.81 5.75 Z" />
<path fill="#ffffff" opacity="1.00" d=" M 138.31 19.11 C 138.28 14.17 137.22 8.67 139.92 4.21 C 143.43 6.24 143.40 10.70 144.20 14.20 C 144.40 17.44 146.38 22.05 142.98 24.25 C 139.82 25.31 138.31 21.63 138.31 19.11 Z" />
<path fill="#ffffff" opacity="1.00" d=" M 581.11 8.97 C 580.69 6.69 582.43 3.61 585.07 4.80 C 586.76 6.89 587.26 9.60 588.18 12.06 C 590.41 18.96 593.00 25.74 595.62 32.50 C 596.88 36.21 598.60 40.13 597.47 44.09 C 596.91 44.36 595.78 44.92 595.21 45.20 C 594.80 45.24 593.96 45.34 593.55 45.39 C 592.80 44.48 591.67 43.78 591.37 42.58 C 588.65 31.17 582.65 20.68 581.11 8.97 Z" />
<path fill="#ffffff" opacity="1.00" d=" M 498.97 9.16 C 499.63 7.27 501.28 6.20 503.04 5.45 C 506.12 7.25 507.57 10.61 509.30 13.55 C 514.55 23.08 519.68 32.66 525.00 42.15 C 526.36 43.97 525.68 47.56 522.97 47.40 C 520.74 47.68 519.34 45.53 518.37 43.87 C 513.05 34.39 508.03 24.75 502.90 15.17 C 499.04 24.44 495.97 34.08 494.51 44.03 C 494.32 45.93 492.39 46.71 490.99 47.58 C 488.78 46.34 487.11 44.42 485.77 42.30 C 480.51 34.41 475.07 26.61 470.48 18.30 C 470.73 25.85 470.67 33.41 470.54 40.96 C 470.37 44.68 470.45 48.59 468.69 51.99 C 466.30 51.99 466.61 48.69 466.06 47.03 C 465.18 35.38 465.25 23.67 465.10 11.98 C 464.96 10.07 465.60 7.29 467.95 7.17 C 470.97 6.67 472.61 9.79 474.06 11.87 C 479.13 20.13 484.43 28.23 489.73 36.34 C 491.76 26.97 494.96 17.86 498.97 9.16 Z" />
<path fill="#ffffff" opacity="1.00" d=" M 801.94 11.78 C 802.05 9.47 802.25 6.31 804.95 5.58 C 808.72 4.52 811.18 8.26 813.36 10.65 C 821.75 20.82 829.36 31.68 836.05 43.03 C 838.36 45.96 834.84 51.75 831.47 48.49 C 827.54 44.29 825.08 38.91 821.70 34.27 C 817.24 34.72 812.76 34.96 808.28 34.86 C 808.07 39.63 808.25 44.44 807.63 49.19 C 807.46 50.40 806.71 52.37 805.14 51.90 C 803.48 51.99 803.25 49.73 802.30 48.83 C 794.46 51.34 786.18 53.38 779.44 58.31 C 777.44 59.71 774.42 58.27 774.21 55.85 C 773.17 50.26 771.54 44.81 770.11 39.32 C 767.96 39.03 765.68 38.90 764.07 37.27 C 765.58 36.10 767.17 35.01 768.81 34.02 C 767.94 28.67 764.95 22.29 768.79 17.47 C 769.47 17.84 770.81 18.59 771.49 18.97 C 778.59 15.78 786.20 13.82 793.84 12.42 C 796.16 11.75 798.45 12.63 800.46 13.76 C 800.53 15.19 801.21 16.80 800.24 18.07 C 798.83 20.03 796.27 20.32 794.11 20.77 C 787.10 21.89 780.22 23.71 773.18 24.64 C 774.05 27.17 774.85 29.73 775.65 32.29 C 782.11 31.32 788.43 28.43 795.01 28.92 C 798.89 29.45 798.90 35.45 795.06 36.06 C 789.29 37.25 783.41 38.04 777.56 38.76 C 778.62 42.40 779.68 46.04 780.55 49.72 C 787.46 46.52 794.65 43.93 801.91 41.63 C 801.60 31.68 801.72 21.73 801.94 11.78 M 808.74 16.20 C 808.68 20.49 808.52 24.78 808.45 29.07 C 811.40 28.61 814.36 28.14 817.34 27.75 C 814.54 23.85 811.67 20.00 808.74 16.20 Z" />
<path fill="#ffffff" opacity="1.00" d=" M 308.64 14.92 C 309.80 11.85 310.67 8.03 313.93 6.50 C 316.87 5.46 319.21 7.89 320.63 10.14 C 325.15 17.10 329.24 24.33 333.33 31.55 C 337.01 36.88 339.24 43.00 342.50 48.58 C 343.79 51.59 346.63 54.58 345.49 58.07 C 344.34 60.61 340.20 60.44 338.99 58.02 C 335.66 52.57 333.24 46.58 329.89 41.15 C 322.72 40.11 315.29 40.89 308.04 41.31 C 306.28 47.73 305.00 54.34 302.44 60.52 C 301.94 62.09 299.82 62.43 298.70 61.30 C 297.57 59.17 298.29 56.70 298.51 54.45 C 296.15 53.79 294.28 52.03 293.66 49.65 C 290.80 40.94 287.48 32.40 284.14 23.87 C 281.07 33.60 279.19 43.67 276.31 53.45 C 273.77 55.09 270.43 54.43 268.99 51.68 C 262.94 42.20 257.66 32.24 251.97 22.53 C 250.56 32.27 250.73 42.14 249.98 51.93 C 249.82 54.12 249.14 56.27 247.84 58.06 C 245.31 56.75 245.42 53.45 245.15 51.01 C 244.63 40.85 244.84 30.60 246.32 20.52 C 246.80 17.84 247.65 14.29 250.83 13.75 C 253.87 13.53 255.76 16.35 257.27 18.55 C 262.34 26.73 267.13 35.08 271.92 43.42 C 274.26 34.55 276.73 25.69 280.06 17.13 C 280.80 15.36 281.70 13.01 284.01 13.04 C 286.55 12.68 287.98 15.06 288.76 17.08 C 292.86 26.73 296.59 36.54 300.09 46.43 C 302.48 35.81 305.28 25.27 308.64 14.92 M 315.72 15.55 C 313.54 21.97 311.65 28.49 309.75 34.99 C 315.02 33.98 320.36 33.40 325.73 33.26 C 322.40 27.35 319.17 21.39 315.72 15.55 Z" />
<path fill="#ffffff" opacity="1.00" d=" M 725.49 18.86 C 724.59 14.70 723.58 9.78 726.89 6.38 C 730.84 11.50 731.97 18.06 734.27 23.98 C 739.86 16.77 747.59 10.21 756.98 9.20 C 761.24 8.47 765.55 12.96 763.69 17.15 C 761.54 23.02 756.41 27.09 752.01 31.28 C 758.41 35.73 764.48 40.63 770.40 45.69 C 771.92 46.75 771.90 48.75 772.41 50.35 C 770.97 51.14 769.60 52.66 767.79 52.20 C 764.88 51.52 762.81 49.21 760.67 47.31 C 756.31 43.16 751.72 39.27 747.38 35.10 C 744.99 37.01 742.55 38.87 740.07 40.66 C 741.34 46.21 745.35 51.69 743.51 57.46 C 742.05 57.97 740.51 58.92 738.95 58.25 C 736.80 57.14 736.26 54.61 735.57 52.52 C 732.16 41.32 728.20 30.27 725.49 18.86 M 738.01 28.00 C 736.69 29.19 736.53 30.88 736.88 32.54 C 743.94 27.71 750.97 22.54 756.35 15.82 C 749.09 17.69 742.82 22.35 738.01 28.00 Z" />
<path fill="#ffffff" opacity="1.00" d=" M 155.79 11.88 C 156.74 8.45 160.65 6.94 163.93 7.36 C 170.41 8.18 176.29 11.60 181.19 15.78 C 183.28 17.61 185.49 20.99 183.36 23.59 C 181.90 25.32 179.26 24.68 177.88 23.20 C 173.59 19.16 168.53 15.57 162.60 14.57 C 164.06 21.38 169.53 26.06 174.10 30.88 C 179.16 36.02 184.21 41.75 185.96 48.94 C 187.00 52.88 185.07 57.51 181.15 58.98 C 175.85 61.08 170.06 59.03 165.19 56.72 C 158.78 53.56 152.48 48.37 151.14 40.96 C 150.37 38.18 151.31 35.05 153.81 33.48 C 155.95 37.99 157.58 43.12 161.79 46.21 C 166.21 49.49 171.45 52.34 177.09 52.38 C 177.52 52.22 178.37 51.89 178.80 51.73 C 178.62 47.98 176.35 44.78 174.13 41.92 C 168.90 35.24 161.71 30.10 157.71 22.47 C 156.15 19.23 154.95 15.49 155.79 11.88 Z" />
<path fill="#ffffff" opacity="1.00" d=" M 520.53 11.90 C 520.12 10.11 521.06 8.50 521.92 7.01 C 525.79 11.48 526.02 17.75 528.16 23.06 C 530.59 29.45 532.76 37.00 539.20 40.50 C 541.07 38.47 541.68 35.72 541.80 33.04 C 542.11 25.87 541.50 18.50 538.79 11.79 C 539.11 10.74 539.44 9.69 539.78 8.63 C 541.97 7.54 544.77 7.55 545.92 10.07 C 549.03 17.61 549.13 26.03 548.76 34.07 C 552.49 34.36 555.36 36.96 558.59 38.54 C 564.19 41.43 570.13 44.87 576.68 44.14 C 574.34 39.59 569.66 37.13 565.58 34.42 C 560.05 30.83 553.98 27.23 550.91 21.13 C 548.79 17.13 550.60 11.63 554.80 9.82 C 559.43 7.89 564.59 9.42 569.08 11.05 C 572.78 12.52 577.28 14.72 577.33 19.34 C 571.81 18.02 566.78 14.85 560.98 14.75 C 559.29 14.68 556.88 14.86 556.69 16.99 C 557.79 20.10 560.51 22.23 563.05 24.17 C 569.51 28.90 577.42 32.14 582.18 38.86 C 584.50 41.96 584.54 46.79 581.47 49.42 C 577.06 53.34 570.54 51.95 565.50 50.17 C 559.08 47.69 552.65 44.74 547.43 40.18 C 546.01 43.23 543.62 46.38 539.95 46.54 C 534.28 46.89 530.16 41.99 527.69 37.48 C 523.66 29.54 521.53 20.71 520.53 11.90 Z" />
<path fill="#ffffff" opacity="1.00" d=" M 687.08 9.33 C 692.72 7.49 698.84 8.36 704.49 9.72 C 711.62 11.76 719.21 14.71 723.32 21.30 C 713.39 18.61 703.51 14.27 693.02 14.99 C 690.60 15.19 687.06 15.93 686.85 18.92 C 687.01 23.35 690.07 26.98 692.96 30.07 C 700.55 37.66 710.78 43.15 721.68 43.39 C 714.57 38.35 706.62 34.62 698.46 31.64 C 696.75 31.17 696.23 29.34 695.40 28.00 C 696.08 26.89 696.46 25.51 697.54 24.67 C 700.59 23.32 703.71 25.16 706.49 26.33 C 713.09 29.53 719.85 32.60 725.72 37.06 C 728.47 39.15 731.40 42.37 730.35 46.13 C 728.75 50.15 723.83 50.94 720.01 50.83 C 707.73 50.15 696.22 43.93 687.69 35.26 C 683.63 30.80 679.57 25.39 679.77 19.05 C 679.69 14.63 682.95 10.65 687.08 9.33 Z" />
<path fill="#ffffff" opacity="1.00" d=" M 1046.15 12.04 C 1045.67 10.17 1046.83 8.67 1047.90 7.29 C 1050.89 8.87 1051.71 12.31 1052.83 15.23 C 1055.12 21.92 1057.61 28.55 1060.17 35.14 C 1061.25 37.20 1060.63 40.73 1057.87 40.86 C 1054.96 41.68 1053.33 38.91 1052.60 36.60 C 1049.73 28.64 1047.01 20.50 1046.15 12.04 Z" />
<path fill="#ffffff" opacity="1.00" d=" M 1092.31 9.64 C 1093.18 9.35 1094.07 9.05 1094.96 8.74 C 1095.76 9.06 1096.59 9.39 1097.43 9.70 C 1099.14 12.63 1099.34 16.07 1099.81 19.36 C 1100.52 25.91 1101.27 32.46 1101.80 39.03 C 1102.26 41.80 1099.81 44.90 1096.88 44.19 C 1093.65 43.05 1091.04 40.72 1088.37 38.68 C 1081.52 33.05 1074.76 27.32 1068.20 21.36 C 1068.71 27.57 1069.03 33.80 1069.11 40.04 C 1069.01 42.32 1069.10 44.78 1068.05 46.86 C 1066.98 48.79 1063.64 48.07 1063.40 45.90 C 1062.07 39.01 1062.10 31.93 1061.45 24.95 C 1061.20 20.53 1060.20 15.99 1061.58 11.65 C 1063.70 10.69 1066.10 10.26 1068.01 11.95 C 1076.96 18.45 1085.09 25.99 1093.65 32.98 C 1092.92 26.66 1092.42 20.31 1091.32 14.03 C 1090.83 12.46 1091.65 11.00 1092.31 9.64 Z" />
<path fill="#ffffff" opacity="1.00" d=" M 862.17 10.14 C 864.81 9.80 868.34 9.40 869.96 12.04 C 871.58 14.37 869.44 17.59 866.80 17.77 C 862.61 18.40 858.39 18.72 854.20 19.19 C 857.51 26.25 859.37 33.87 861.87 41.24 C 862.68 44.49 864.32 47.78 863.69 51.19 C 863.08 54.57 857.63 54.81 856.33 51.82 C 855.25 49.84 854.82 47.61 854.22 45.47 C 852.01 37.03 849.42 28.62 848.74 19.88 C 841.86 20.74 834.96 21.47 828.03 21.72 C 825.96 21.60 823.23 21.86 821.99 19.84 C 822.06 16.95 825.61 16.56 827.76 15.80 C 839.09 13.21 850.66 11.74 862.17 10.14 Z" />
<path fill="#ffffff" opacity="1.00" d=" M 969.67 16.40 C 971.39 11.88 976.29 9.27 981.00 9.32 C 987.59 9.44 994.06 11.85 999.41 15.67 C 1001.35 17.13 1003.71 19.10 1003.09 21.85 C 1000.83 22.40 998.98 20.82 997.11 19.87 C 991.89 16.94 985.98 14.51 979.88 15.13 C 977.10 15.41 974.74 18.25 975.78 21.05 C 977.22 25.77 981.00 29.29 984.53 32.55 C 990.09 37.20 996.30 41.66 1003.62 42.86 C 1000.26 38.57 995.46 35.83 990.75 33.29 C 987.79 31.57 984.08 30.50 982.62 27.09 C 983.03 25.97 983.45 24.85 983.88 23.73 C 987.24 21.53 990.58 24.11 993.55 25.74 C 999.07 28.95 1004.95 32.08 1008.93 37.24 C 1010.76 39.70 1012.29 42.94 1011.16 46.02 C 1010.09 48.92 1006.87 50.31 1003.97 50.33 C 998.78 50.37 993.97 48.03 989.57 45.52 C 982.84 41.48 976.60 36.31 972.19 29.76 C 969.63 25.92 967.96 20.93 969.67 16.40 Z" />
<path fill="#ffffff" opacity="1.00" d=" M 599.83 20.96 C 599.77 16.42 603.50 12.39 607.96 11.80 C 613.68 11.08 619.19 13.41 624.26 15.80 C 627.94 17.69 631.96 19.40 634.51 22.83 C 634.17 23.46 633.47 24.74 633.13 25.37 C 624.70 24.56 617.72 17.85 609.06 18.45 C 605.69 19.04 606.78 23.15 607.81 25.29 C 611.27 32.41 617.74 37.56 624.38 41.57 C 628.78 44.58 635.03 44.07 638.37 48.69 C 636.50 51.47 633.23 53.09 629.90 52.10 C 621.02 49.97 613.57 44.04 607.41 37.54 C 603.37 32.97 599.70 27.29 599.83 20.96 Z" />
<path fill="#ffffff" opacity="1.00" d=" M 94.78 18.83 C 104.78 16.87 114.89 15.58 124.98 14.21 C 127.21 14.01 129.87 13.74 131.61 15.46 C 133.83 17.27 132.82 21.48 129.88 21.81 C 125.17 22.58 120.41 23.07 115.66 23.52 C 119.87 32.30 123.69 41.39 125.78 50.92 C 126.82 54.64 122.94 56.68 119.86 55.38 C 118.19 52.21 117.75 48.64 116.77 45.24 C 114.82 38.17 112.34 31.24 110.80 24.06 C 104.57 24.76 98.31 25.70 92.03 25.52 C 90.11 25.57 88.02 24.12 88.75 21.99 C 90.04 19.92 92.58 19.36 94.78 18.83 Z" />
<path fill="#ffffff" opacity="1.00" d=" M 1114.35 34.62 C 1118.85 32.75 1124.97 41.02 1119.92 44.21 C 1114.72 47.09 1108.13 37.26 1114.35 34.62 Z" />
</g>
</svg>
