<?xml version="1.0" encoding="utf-8"?>
<!-- Generator: Adobe Illustrator 16.0.0, SVG Export Plug-In . SVG Version: 6.00 Build 0)  -->
<!DOCTYPE svg PUBLIC "-//W3C//DTD SVG 1.1//EN" "http://www.w3.org/Graphics/SVG/1.1/DTD/svg11.dtd">
<svg version="1.1" id="Слой_1" xmlns="http://www.w3.org/2000/svg" xmlns:xlink="http://www.w3.org/1999/xlink" x="0px" y="0px"
	 width="460.7px" height="386.6px" viewBox="0 0 460.7 386.6" enable-background="new 0 0 460.7 386.6" xml:space="preserve">
<path d="M12.2,368.3c-0.1,5.9-2.4,11.9-0.5,17.7c0.1,0.2,0.2,0.4,0.3,0.6h24.3c21.2-8.1,40.4-21.2,61.3-29.8
	c5.7,8.8,6.8,19.6,7.5,29.8h204.6c0.4-20.5-0.3-41.2-5.9-61.1c11.4,0.9,23,0.5,34.4-0.9c13.4-1.7,27.2-3.8,38.7-11.4
	c0.3,6,0.9,12.2,0.1,18.2c-1.6,4.5-5.7,8.3-10.4,9.4c-7.6-0.7-12.5-7.8-19.4-10.2c-6.2-1.9-11.1,4.3-12.5,9.5
	c-0.9,11.3,6.4,20.7,11.9,29.9c3.3,4.8,3.7,10.8,3.5,16.5h102c-3.7-22.9,4.9-45.4,8.3-67.8c0.6-9.7,0.3-20.6-5.8-28.7
	c-5-7.9-16.9-12.6-24.9-5.9c-8.1,8.3-4.9,20.4-7.5,30.6c-1.3,4.6-6.5,5.8-10.6,7c-0.6-6.7-2.9-13.7-0.6-20.2
	c5.9-8.2,10.6-18.8,7.1-29c-1.5-8.3-8.8-13.1-14.1-18.7c-1.9-7.4-2.4-15.1-3.4-22.7c-1.6-15.4-4.4-30.7-5.2-46.1
	c3-6.7,9.4-11.8,11.4-19c0-4.2-1.6-8.2-2.8-12.2c-5.6-16.5-10.9-33-16.8-49.3c-2.5-6.3-5.6-12.9-11.8-16.2c-2.8-1.6-6.1-0.4-8.5,1.2
	c-5.3,3.9-7.5,10.3-9.8,16.2c-3.5-0.6-7-1.1-10.5-1.7c2.8-3.8,11.1-10.9,9.2-16.1c-2.2-5.9-12-0.5-15.7,0.2
	c-2.4,0.5-4.8,0.4-7.2,0.9c-4.1,0.9-8.1,2.7-12,4.1c-0.9-4.6-0.8-9.6-2.5-14.1c-0.9-2.5-2.1-8.2-4.9-9.2c-2.3-0.8-5.4,2.9-7.3,4
	c0.3-4.9-0.6-10.7-5.8-12.8c-6.1,0.2-10.8,5-15.7,7.9c-1.4-10.3-1.6-20.7-3.2-30.9c-1-5.1-6.5-7-11-5.1c-12.4,4.4-20,16-28.4,25.3
	c-11,3.9-14.1,16-17.3,26c-8.1-21.7-14.4-44.4-25.2-65.1c-3.6-6.7-7.7-13.6-14.1-18c-2.9-2.1-7.3-1.1-9.9,1.1
	c-2.8,7.1-2,14.9-1.6,22.4c1.5,21.3,4.5,42.6,10.6,63.2c-3.2,1-6.3,2.7-9.6,2.8c-5.7-5.3-10.5-11.5-16.1-16.9
	c-3.4-3.3-7.3-7.7-12.2-8.8c-5.4-1.3-11.8-0.6-14.5,4.8c-2.4,4.8-2,10.8-1.9,16c0.1,8,1.4,15.9,2.3,23.9
	c-14.2-4-27.7-11.7-42.9-11.3c-8.4,1.9-15.2,7.4-22.7,11.3c-3.2,2.2-1.8,7.1-0.7,9.9c3,8.6,6,17.4,6.9,26.5
	c-18.1,9.4-41,7.3-56.2,22.4c-6.3,7.8-9.3,18.3-7.9,28.2c0.9,12,4,24.2,1.4,36.3c-2.4,10.4-6.8,21.4-2.7,32.1
	c7.4,20.3,29.3,34.4,50.9,31.9c16.7-0.5,32-8.2,47.3-14.2c0.5,4.4,0.8,8.8,0.4,13.2c-1,5.1-5.2,8.7-9.3,11.5
	c-14.4,8.3-30.7,12.4-46.4,17.7c-14.8,5.8-30.3,10.5-43.6,19.4c-4.5,3.4-9.1,9.6-6,15.4C2.7,364.7,8.7,365.1,12.2,368.3z M359.5,143
	c-1.8,1.7-2.4,7.6-2.9,10c-0.6,2.9-1.1,6.4-1.2,9.3c-4.3-2.3-8.7-3.4-13.7-2.6C347.8,154.3,353.6,148.6,359.5,143z M323.8,253.1
	c4.2,0.4,8.7,0.8,12.5-1.3c12.7-6.6-5.1-23.1-10-28.1c12.6-3.1,26-5.6,36.9-13c6.6-3.7,7.7-14.3,1.5-18.8
	c-6.4-5.5-14.7-8.3-22.4-11.5c6.2-3.9,12.8-8.1,16.2-15c3.9,5.6,8.3,11,11.3,17.1c2.3,26.4,1.5,53.1,3.6,79.5
	c-16.7,11.1-39.4,16.9-57.9,7c-8.6-3.2-8.6-13.5-11-21C310.9,250.8,317,252.5,323.8,253.1z"/>
</svg>
